{
	"name": "Routes",
	"options": {
		"idInjection": false,
		"mysql": {
			"schema": "DS_Routes",
			"table": "Routes"
		},
		"relations": {}
	},
	"properties": {
		"routespk": {
			"type": "Number",
			"required": true,
			"length": null,
			"precision": 10,
			"scale": 0,
			"id": 1,
			"mysql": {
				"columnName": "RoutesPk",
				"dataType": "int",
				"dataLength": null,
				"dataPrecision": 10,
				"dataScale": 0,
				"nullable": "N"
			}
		},
		"name": {
			"type": "String",
			"required": true,
			"length": 45,
			"precision": null,
			"scale": null,
			"mysql": {
				"columnName": "name",
				"dataType": "varchar",
				"dataLength": 45,
				"dataPrecision": null,
				"dataScale": null,
				"nullable": "N"
			}
		}
	}
}