[
  {
    "latitud": 9.85926,
    "longitud": -83.91328
  },
  {
    "latitud": 9.85766,
    "longitud": -83.91242
  },
  {
    "latitud": 9.85718,
    "longitud": -83.91004
  },
  {
    "latitud": 9.85513,
    "longitud": -83.91015
  },
  {
    "latitud": 9.85428,
    "longitud": -83.90656
  },
  {
    "latitud": 9.85344,
    "longitud": -83.90690
  },
  {
    "latitud": 9.85766,
    "longitud": -83.91242
  }
]